<svg width="464" height="444" viewBox="0 0 464 444" fill="none" xmlns="http://www.w3.org/2000/svg">
<path d="M445 224C445 345.503 346.503 444 225 444C103.497 444 5 345.503 5 224C5 102.497 103.497 4 225 4C346.503 4 445 102.497 445 224ZM6.91206 224C6.91206 344.447 104.553 442.088 225 442.088C345.447 442.088 443.088 344.447 443.088 224C443.088 103.553 345.447 5.91206 225 5.91206C104.553 5.91206 6.91206 103.553 6.91206 224Z" fill="url(#paint0_linear_1001_4753)"/>
<circle cx="96.9473" cy="5.53607" r="5.53607" transform="rotate(90 96.9473 5.53607)" fill="url(#paint1_linear_1001_4753)"/>
<circle cx="97.3759" cy="34.6336" r="5.108" transform="rotate(90 97.3759 34.6336)" fill="url(#paint2_linear_1001_4753)"/>
<circle cx="97.3759" cy="64.1593" r="5.108" transform="rotate(90 97.3759 64.1593)" fill="url(#paint3_linear_1001_4753)"/>
<circle cx="97.3759" cy="93.685" r="5.108" transform="rotate(90 97.3759 93.685)" fill="url(#paint4_linear_1001_4753)"/>
<circle cx="97.3759" cy="123.211" r="5.108" transform="rotate(90 97.3759 123.211)" fill="url(#paint5_linear_1001_4753)"/>
<circle cx="97.3759" cy="152.736" r="5.108" transform="rotate(90 97.3759 152.736)" fill="url(#paint6_linear_1001_4753)"/>
<circle cx="74.309" cy="5.108" r="5.108" transform="rotate(90 74.309 5.108)" fill="url(#paint7_linear_1001_4753)"/>
<circle cx="74.309" cy="34.6336" r="5.108" transform="rotate(90 74.309 34.6336)" fill="url(#paint8_linear_1001_4753)"/>
<circle cx="74.309" cy="64.1593" r="5.108" transform="rotate(90 74.309 64.1593)" fill="url(#paint9_linear_1001_4753)"/>
<circle cx="74.309" cy="93.685" r="5.108" transform="rotate(90 74.309 93.685)" fill="url(#paint10_linear_1001_4753)"/>
<circle cx="74.309" cy="123.211" r="5.108" transform="rotate(90 74.309 123.211)" fill="url(#paint11_linear_1001_4753)"/>
<circle cx="74.309" cy="152.736" r="5.108" transform="rotate(90 74.309 152.736)" fill="url(#paint12_linear_1001_4753)"/>
<circle cx="51.2421" cy="5.108" r="5.108" transform="rotate(90 51.2421 5.108)" fill="url(#paint13_linear_1001_4753)"/>
<circle cx="51.2421" cy="34.6336" r="5.108" transform="rotate(90 51.2421 34.6336)" fill="url(#paint14_linear_1001_4753)"/>
<circle cx="51.2421" cy="64.1593" r="5.108" transform="rotate(90 51.2421 64.1593)" fill="url(#paint15_linear_1001_4753)"/>
<circle cx="51.2421" cy="93.685" r="5.108" transform="rotate(90 51.2421 93.685)" fill="url(#paint16_linear_1001_4753)"/>
<circle cx="51.2421" cy="123.211" r="5.108" transform="rotate(90 51.2421 123.211)" fill="url(#paint17_linear_1001_4753)"/>
<circle cx="51.2421" cy="152.736" r="5.108" transform="rotate(90 51.2421 152.736)" fill="url(#paint18_linear_1001_4753)"/>
<circle cx="28.1752" cy="5.108" r="5.108" transform="rotate(90 28.1752 5.108)" fill="url(#paint19_linear_1001_4753)"/>
<circle cx="28.1752" cy="34.6336" r="5.108" transform="rotate(90 28.1752 34.6336)" fill="url(#paint20_linear_1001_4753)"/>
<circle cx="28.1752" cy="64.1593" r="5.108" transform="rotate(90 28.1752 64.1593)" fill="url(#paint21_linear_1001_4753)"/>
<circle cx="28.1752" cy="93.685" r="5.108" transform="rotate(90 28.1752 93.685)" fill="url(#paint22_linear_1001_4753)"/>
<circle cx="28.1752" cy="123.211" r="5.108" transform="rotate(90 28.1752 123.211)" fill="url(#paint23_linear_1001_4753)"/>
<circle cx="28.1752" cy="152.736" r="5.108" transform="rotate(90 28.1752 152.736)" fill="url(#paint24_linear_1001_4753)"/>
<circle cx="5.1083" cy="5.108" r="5.108" transform="rotate(90 5.1083 5.108)" fill="url(#paint25_linear_1001_4753)"/>
<circle cx="5.1083" cy="34.6336" r="5.108" transform="rotate(90 5.1083 34.6336)" fill="url(#paint26_linear_1001_4753)"/>
<circle cx="5.1083" cy="64.1593" r="5.108" transform="rotate(90 5.1083 64.1593)" fill="url(#paint27_linear_1001_4753)"/>
<circle cx="5.1083" cy="93.685" r="5.108" transform="rotate(90 5.1083 93.685)" fill="url(#paint28_linear_1001_4753)"/>
<circle cx="5.1083" cy="123.211" r="5.108" transform="rotate(90 5.1083 123.211)" fill="url(#paint29_linear_1001_4753)"/>
<circle cx="5.1083" cy="152.736" r="5.108" transform="rotate(90 5.1083 152.736)" fill="url(#paint30_linear_1001_4753)"/>
<circle cx="225" cy="224" r="200" fill="url(#paint31_linear_1001_4753)"/>
<circle cx="395.048" cy="356.048" r="48.9019" transform="rotate(-34.7202 395.048 356.048)" fill="url(#paint32_linear_1001_4753)"/>
<defs>
<linearGradient id="paint0_linear_1001_4753" x1="4.99998" y1="-29.6862" x2="474.527" y2="461.883" gradientUnits="userSpaceOnUse">
<stop stop-color="#1CA7EC"/>
<stop offset="1" stop-color="#4ADEDE"/>
</linearGradient>
<linearGradient id="paint1_linear_1001_4753" x1="96.9473" y1="-4.76837e-07" x2="96.9473" y2="11.0721" gradientUnits="userSpaceOnUse">
<stop stop-color="#7BD5F5"/>
<stop offset="1" stop-color="#7BD5F5"/>
</linearGradient>
<linearGradient id="paint2_linear_1001_4753" x1="97.3759" y1="29.5256" x2="97.3759" y2="39.7416" gradientUnits="userSpaceOnUse">
<stop stop-color="#7BD5F5"/>
<stop offset="1" stop-color="#7BD5F5"/>
</linearGradient>
<linearGradient id="paint3_linear_1001_4753" x1="97.3759" y1="59.0513" x2="97.3759" y2="69.2673" gradientUnits="userSpaceOnUse">
<stop stop-color="#7BD5F5"/>
<stop offset="1" stop-color="#7BD5F5"/>
</linearGradient>
<linearGradient id="paint4_linear_1001_4753" x1="97.3759" y1="88.577" x2="97.3759" y2="98.793" gradientUnits="userSpaceOnUse">
<stop stop-color="#7BD5F5"/>
<stop offset="1" stop-color="#7BD5F5"/>
</linearGradient>
<linearGradient id="paint5_linear_1001_4753" x1="97.3759" y1="118.103" x2="97.3759" y2="128.319" gradientUnits="userSpaceOnUse">
<stop stop-color="#7BD5F5"/>
<stop offset="1" stop-color="#7BD5F5"/>
</linearGradient>
<linearGradient id="paint6_linear_1001_4753" x1="97.3759" y1="147.628" x2="97.3759" y2="157.844" gradientUnits="userSpaceOnUse">
<stop stop-color="#7BD5F5"/>
<stop offset="1" stop-color="#7BD5F5"/>
</linearGradient>
<linearGradient id="paint7_linear_1001_4753" x1="74.309" y1="0" x2="74.309" y2="10.216" gradientUnits="userSpaceOnUse">
<stop stop-color="#7BD5F5"/>
<stop offset="1" stop-color="#7BD5F5"/>
</linearGradient>
<linearGradient id="paint8_linear_1001_4753" x1="74.309" y1="29.5256" x2="74.309" y2="39.7416" gradientUnits="userSpaceOnUse">
<stop stop-color="#7BD5F5"/>
<stop offset="1" stop-color="#7BD5F5"/>
</linearGradient>
<linearGradient id="paint9_linear_1001_4753" x1="74.309" y1="59.0513" x2="74.309" y2="69.2673" gradientUnits="userSpaceOnUse">
<stop stop-color="#7BD5F5"/>
<stop offset="1" stop-color="#7BD5F5"/>
</linearGradient>
<linearGradient id="paint10_linear_1001_4753" x1="74.309" y1="88.577" x2="74.309" y2="98.793" gradientUnits="userSpaceOnUse">
<stop stop-color="#7BD5F5"/>
<stop offset="1" stop-color="#7BD5F5"/>
</linearGradient>
<linearGradient id="paint11_linear_1001_4753" x1="74.309" y1="118.103" x2="74.309" y2="128.319" gradientUnits="userSpaceOnUse">
<stop stop-color="#7BD5F5"/>
<stop offset="1" stop-color="#7BD5F5"/>
</linearGradient>
<linearGradient id="paint12_linear_1001_4753" x1="74.309" y1="147.628" x2="74.309" y2="157.844" gradientUnits="userSpaceOnUse">
<stop stop-color="#7BD5F5"/>
<stop offset="1" stop-color="#7BD5F5"/>
</linearGradient>
<linearGradient id="paint13_linear_1001_4753" x1="51.2421" y1="0" x2="51.2421" y2="10.216" gradientUnits="userSpaceOnUse">
<stop stop-color="#7BD5F5"/>
<stop offset="1" stop-color="#7BD5F5"/>
</linearGradient>
<linearGradient id="paint14_linear_1001_4753" x1="51.2421" y1="29.5256" x2="51.2421" y2="39.7416" gradientUnits="userSpaceOnUse">
<stop stop-color="#7BD5F5"/>
<stop offset="1" stop-color="#7BD5F5"/>
</linearGradient>
<linearGradient id="paint15_linear_1001_4753" x1="51.2421" y1="59.0513" x2="51.2421" y2="69.2673" gradientUnits="userSpaceOnUse">
<stop stop-color="#7BD5F5"/>
<stop offset="1" stop-color="#7BD5F5"/>
</linearGradient>
<linearGradient id="paint16_linear_1001_4753" x1="51.2421" y1="88.577" x2="51.2421" y2="98.793" gradientUnits="userSpaceOnUse">
<stop stop-color="#7BD5F5"/>
<stop offset="1" stop-color="#7BD5F5"/>
</linearGradient>
<linearGradient id="paint17_linear_1001_4753" x1="51.2421" y1="118.103" x2="51.2421" y2="128.319" gradientUnits="userSpaceOnUse">
<stop stop-color="#7BD5F5"/>
<stop offset="1" stop-color="#7BD5F5"/>
</linearGradient>
<linearGradient id="paint18_linear_1001_4753" x1="51.2421" y1="147.628" x2="51.2421" y2="157.844" gradientUnits="userSpaceOnUse">
<stop stop-color="#7BD5F5"/>
<stop offset="1" stop-color="#7BD5F5"/>
</linearGradient>
<linearGradient id="paint19_linear_1001_4753" x1="28.1752" y1="0" x2="28.1752" y2="10.216" gradientUnits="userSpaceOnUse">
<stop stop-color="#7BD5F5"/>
<stop offset="1" stop-color="#7BD5F5"/>
</linearGradient>
<linearGradient id="paint20_linear_1001_4753" x1="28.1752" y1="29.5256" x2="28.1752" y2="39.7416" gradientUnits="userSpaceOnUse">
<stop stop-color="#7BD5F5"/>
<stop offset="1" stop-color="#7BD5F5"/>
</linearGradient>
<linearGradient id="paint21_linear_1001_4753" x1="28.1752" y1="59.0513" x2="28.1752" y2="69.2673" gradientUnits="userSpaceOnUse">
<stop stop-color="#7BD5F5"/>
<stop offset="1" stop-color="#7BD5F5"/>
</linearGradient>
<linearGradient id="paint22_linear_1001_4753" x1="28.1752" y1="88.577" x2="28.1752" y2="98.793" gradientUnits="userSpaceOnUse">
<stop stop-color="#7BD5F5"/>
<stop offset="1" stop-color="#7BD5F5"/>
</linearGradient>
<linearGradient id="paint23_linear_1001_4753" x1="28.1752" y1="118.103" x2="28.1752" y2="128.319" gradientUnits="userSpaceOnUse">
<stop stop-color="#7BD5F5"/>
<stop offset="1" stop-color="#7BD5F5"/>
</linearGradient>
<linearGradient id="paint24_linear_1001_4753" x1="28.1752" y1="147.628" x2="28.1752" y2="157.844" gradientUnits="userSpaceOnUse">
<stop stop-color="#7BD5F5"/>
<stop offset="1" stop-color="#7BD5F5"/>
</linearGradient>
<linearGradient id="paint25_linear_1001_4753" x1="5.1083" y1="0" x2="5.1083" y2="10.216" gradientUnits="userSpaceOnUse">
<stop stop-color="#7BD5F5"/>
<stop offset="1" stop-color="#7BD5F5"/>
</linearGradient>
<linearGradient id="paint26_linear_1001_4753" x1="5.1083" y1="29.5256" x2="5.1083" y2="39.7416" gradientUnits="userSpaceOnUse">
<stop stop-color="#7BD5F5"/>
<stop offset="1" stop-color="#7BD5F5"/>
</linearGradient>
<linearGradient id="paint27_linear_1001_4753" x1="5.1083" y1="59.0513" x2="5.1083" y2="69.2673" gradientUnits="userSpaceOnUse">
<stop stop-color="#7BD5F5"/>
<stop offset="1" stop-color="#7BD5F5"/>
</linearGradient>
<linearGradient id="paint28_linear_1001_4753" x1="5.1083" y1="88.577" x2="5.1083" y2="98.793" gradientUnits="userSpaceOnUse">
<stop stop-color="#7BD5F5"/>
<stop offset="1" stop-color="#7BD5F5"/>
</linearGradient>
<linearGradient id="paint29_linear_1001_4753" x1="5.1083" y1="118.103" x2="5.1083" y2="128.319" gradientUnits="userSpaceOnUse">
<stop stop-color="#7BD5F5"/>
<stop offset="1" stop-color="#7BD5F5"/>
</linearGradient>
<linearGradient id="paint30_linear_1001_4753" x1="5.1083" y1="147.628" x2="5.1083" y2="157.844" gradientUnits="userSpaceOnUse">
<stop stop-color="#7BD5F5"/>
<stop offset="1" stop-color="#7BD5F5"/>
</linearGradient>
<linearGradient id="paint31_linear_1001_4753" x1="25" y1="-6.62381" x2="451.843" y2="440.257" gradientUnits="userSpaceOnUse">
<stop stop-color="#1CA7EC"/>
<stop offset="1" stop-color="#4ADEDE"/>
</linearGradient>
<linearGradient id="paint32_linear_1001_4753" x1="346.146" y1="299.658" x2="450.513" y2="408.925" gradientUnits="userSpaceOnUse">
<stop stop-color="#1CA7EC"/>
<stop offset="1" stop-color="#7BD5F5"/>
</linearGradient>
</defs>
</svg>
