<svg width="250" height="250" viewBox="0 0 250 250" fill="none" xmlns="http://www.w3.org/2000/svg">
<rect x="76.2739" y="28" width="153.476" height="153.476" rx="15" transform="rotate(18.3328 76.2739 28)" fill="#F0F9FF"/>
<circle cx="204.902" cy="162.902" r="8.55346" transform="rotate(-124.72 204.902 162.902)" fill="url(#paint0_linear_613_4139)"/>
<circle cx="204.902" cy="185.902" r="8.55346" transform="rotate(-124.72 204.902 185.902)" fill="url(#paint1_linear_613_4139)"/>
<circle cx="204.902" cy="138.902" r="8.55346" transform="rotate(-124.72 204.902 138.902)" fill="url(#paint2_linear_613_4139)"/>
<path fill-rule="evenodd" clip-rule="evenodd" d="M84.4028 64.4028C84.4028 62.5235 82.8793 61 81 61V61C72.7157 61 66 67.7157 66 76V167.664C66 175.948 72.7157 182.664 81 182.664H149.149C157.434 182.664 164.149 175.948 164.149 167.664V167.664C164.149 166.914 163.541 166.306 162.791 166.306H99.4028C91.1186 166.306 84.4028 159.59 84.4028 151.306V64.4028Z" fill="#7BD5F5"/>
<mask id="path-6-inside-1_613_4139" fill="white">
<rect x="66" y="61" width="98" height="122" rx="5"/>
</mask>
<rect x="66" y="61" width="98" height="122" rx="5" stroke="#1F2F98" stroke-width="12" mask="url(#path-6-inside-1_613_4139)"/>
<mask id="path-7-inside-2_613_4139" fill="white">
<rect x="129" y="100" width="56" height="98" rx="5"/>
</mask>
<rect x="129" y="100" width="56" height="98" rx="5" fill="white" stroke="#1F2F98" stroke-width="12" mask="url(#path-7-inside-2_613_4139)"/>
<path fill-rule="evenodd" clip-rule="evenodd" d="M140.29 100.13C141.003 99.9282 141.657 100.531 141.657 101.272V101.272V169.422C141.657 177.706 148.372 184.422 156.657 184.422H181.866V184.422C183.208 184.422 184.396 185.52 184.03 186.811C182.247 193.103 176.46 197.713 169.597 197.713H144.388C136.104 197.713 129.388 190.997 129.388 182.713V114.563C129.388 107.7 133.998 101.913 140.29 100.13Z" fill="#7BD5F5"/>
<mask id="path-9-inside-3_613_4139" fill="white">
<rect x="129" y="100" width="56" height="98" rx="5"/>
</mask>
<rect x="129" y="100" width="56" height="98" rx="5" stroke="#1F2F98" stroke-width="12" mask="url(#path-9-inside-3_613_4139)"/>
<line x1="148" y1="119" x2="166" y2="119" stroke="#4ADEDE" stroke-width="6" stroke-linecap="round"/>
<line x1="148" y1="135" x2="166" y2="135" stroke="#4ADEDE" stroke-width="6" stroke-linecap="round"/>
<line x1="93" y1="81" x2="128" y2="81" stroke="#4ADEDE" stroke-width="6" stroke-linecap="round"/>
<line x1="93" y1="97" x2="128" y2="97" stroke="#4ADEDE" stroke-width="6" stroke-linecap="round"/>
<line x1="148" y1="150" x2="166" y2="150" stroke="#4ADEDE" stroke-width="6" stroke-linecap="round"/>
<defs>
<linearGradient id="paint0_linear_613_4139" x1="196.349" y1="153.039" x2="214.604" y2="172.151" gradientUnits="userSpaceOnUse">
<stop stop-color="#1CA7EC"/>
<stop offset="1" stop-color="#7BD5F5"/>
</linearGradient>
<linearGradient id="paint1_linear_613_4139" x1="196.349" y1="176.039" x2="214.604" y2="195.151" gradientUnits="userSpaceOnUse">
<stop stop-color="#1CA7EC"/>
<stop offset="1" stop-color="#7BD5F5"/>
</linearGradient>
<linearGradient id="paint2_linear_613_4139" x1="196.349" y1="129.039" x2="214.604" y2="148.151" gradientUnits="userSpaceOnUse">
<stop stop-color="#1CA7EC"/>
<stop offset="1" stop-color="#7BD5F5"/>
</linearGradient>
</defs>
</svg>
